%YAML 1.1
%TAG !u! tag:unity3d.com,2011:
--- !u!134 &13400000
PhysicMaterial:
  m_ObjectHideFlags: 0
  m_PrefabParentObject: {fileID: 0}
  m_PrefabInternal: {fileID: 0}
  m_Name: RoomWall
  dynamicFriction: .100000001
  staticFriction: .100000001
  bounciness: 0
  frictionCombine: 0
  bounceCombine: 0
