%YAML 1.1
%TAG !u! tag:unity3d.com,2011:
--- !u!1 &136400
GameObject:
  m_ObjectHideFlags: 0
  m_PrefabParentObject: {fileID: 0}
  m_PrefabInternal: {fileID: 100100000}
  serializedVersion: 4
  m_Component:
  - 4: {fileID: 462204}
  - 114: {fileID: 11468886}
  m_Layer: 0
  m_Name: GameSetup
  m_TagString: Untagged
  m_Icon: {fileID: 0}
  m_NavMeshLayer: 0
  m_StaticEditorFlags: 0
  m_IsActive: 1
--- !u!4 &462204
Transform:
  m_ObjectHideFlags: 1
  m_PrefabParentObject: {fileID: 0}
  m_PrefabInternal: {fileID: 100100000}
  m_GameObject: {fileID: 136400}
  m_LocalRotation: {x: 0, y: 0, z: 0, w: 1}
  m_LocalPosition: {x: 0, y: 0, z: 0}
  m_LocalScale: {x: 1, y: 1, z: 1}
  m_Children: []
  m_Father: {fileID: 0}
  m_RootOrder: 0
--- !u!114 &11468886
MonoBehaviour:
  m_ObjectHideFlags: 1
  m_PrefabParentObject: {fileID: 0}
  m_PrefabInternal: {fileID: 100100000}
  m_GameObject: {fileID: 136400}
  m_Enabled: 1
  m_EditorHideFlags: 0
  m_Script: {fileID: 11500000, guid: 3be58c1e912a76943835990959ac443c, type: 3}
  m_Name: 
  m_EditorClassIdentifier: 
  m_prefabFadeArray:
  - {fileID: 110220, guid: cb0b21baa36c1ff4c84a6d8363cc824d, type: 2}
  - {fileID: 191858, guid: 7dd07041ea1dc314bac9033035fe4b60, type: 2}
  - {fileID: 147876, guid: 2e07d6bd0bd360f4b87e341042aa485a, type: 2}
  m_prefabEffect:
  - {fileID: 158344, guid: 99adb757ca0e14d488b2561950b1ae9e, type: 2}
  m_seAudioArray:
  - {fileID: 8300000, guid: d03f7246661e4d84295e7feacf7de63a, type: 3}
  - {fileID: 8300000, guid: 9e823e0a9bec7bf449cb88320f5adf79, type: 3}
  - {fileID: 8300000, guid: 433fb5f76529c8e448d3396c7b9442e2, type: 3}
  - {fileID: 8300000, guid: 71e4c0a9768ff074684f308e864c8886, type: 3}
  - {fileID: 8300000, guid: 6fb617379eb05ff4a8a73395f87a9953, type: 3}
  - {fileID: 8300000, guid: 29f38cf8b4e913941931702182a31865, type: 3}
  - {fileID: 8300000, guid: eb997ec04aa09134b9d0144364df1454, type: 3}
  - {fileID: 8300000, guid: fb72d3e3bf8dbc34ab38857b0b219691, type: 3}
  - {fileID: 8300000, guid: ef077b9a738e52b45b2c9c4d47592006, type: 3}
  - {fileID: 8300000, guid: be14b6be46debc840bdd4d51c7e02341, type: 3}
  - {fileID: 8300000, guid: e080685974c2268489025cdc560fd332, type: 3}
  - {fileID: 8300000, guid: 3e5066f6978596640902567dd149f886, type: 3}
  - {fileID: 8300000, guid: a57e42c3baf0d7d48bd589b1c289409d, type: 3}
  - {fileID: 8300000, guid: 552eb7d5db8461c41abafe393ca2c7e6, type: 3}
  - {fileID: 8300000, guid: 4bcd5c2ef5a9dfb48ba3c0a52e36cbd6, type: 3}
  m_bgmAudioArray:
  - {fileID: 8300000, guid: e023931e847d4504b8242930d76f45f3, type: 3}
  - {fileID: 8300000, guid: fea9d321c6b8ab242ab44f2e9dd69542, type: 3}
  - {fileID: 8300000, guid: e633413f443277249a3b02704e427433, type: 3}
  - {fileID: 8300000, guid: baba27f259b038c4abc9e21f31175e47, type: 3}
--- !u!1001 &100100000
Prefab:
  m_ObjectHideFlags: 1
  serializedVersion: 2
  m_Modification:
    m_TransformParent: {fileID: 0}
    m_Modifications: []
    m_RemovedComponents: []
  m_ParentPrefab: {fileID: 0}
  m_RootGameObject: {fileID: 136400}
  m_IsPrefabParent: 1
